module cache-demo

go 1.20

require (
	github.com/go-redis/redis/v8 v8.11.5
	github.com/gofiber/fiber/v2 v2.48.0
)

require (
	github.com/andybalholm/brotli v1.0.5 // indirect
	github.com/cespare/xxhash/v2 v2.1.2 // indirect
	github.com/dgryski/go-rendezvous v0.0.0-20200823014737-9f7001d12a5f // indirect
	github.com/google/uuid v1.3.0 // indirect
	github.com/klauspost/compress v1.16.3 // indirect
	github.com/mattn/go-colorable v0.1.13 // indirect
	github.com/mattn/go-isatty v0.0.19 // indirect
	github.com/mattn/go-runewidth v0.0.14 // indirect
	github.com/rivo/uniseg v0.2.0 // indirect
	github.com/valyala/bytebufferpool v1.0.0 // indirect
	github.com/valyala/fasthttp v1.48.0 // indirect
	github.com/valyala/tcplisten v1.0.0 // indirect
	golang.org/x/sys v0.10.0 // indirect
)
